{
  "project_info": {
    "project_number": "910402464702",
    "firebase_url": "https://weatherapp-cd444.firebaseio.com",
    "project_id": "weatherapp-cd444",
    "storage_bucket": "weatherapp-cd444.appspot.com"
  },
  "client": [
    {
      "client_info": {
        "mobilesdk_app_id": "1:910402464702:android:7b5f896e8b84612d45e7ef",
        "android_client_info": {
          "package_name": "com.astaire.weatherapp"
        }
      },
      "oauth_client": [
        {
          "client_id": "910402464702-28qm097h4ee0shrhechj3ctmf0rv339n.apps.googleusercontent.com",
          "client_type": 1,
          "android_info": {
            "package_name": "com.astaire.weatherapp",
            "certificate_hash": "298d265ea9bdea075b63ba6fb8acb010930fd78b"
          }
        },
        {
          "client_id": "910402464702-k1pqf9tiqsfjk3ksfgigld75g3f4e3vn.apps.googleusercontent.com",
          "client_type": 3
        }
      ],
      "api_key": [
        {
          "current_key": "AIzaSyAIgve6b9dHE5qqPpqkUw-yWOnfNFVLJMc"
        }
      ],
      "services": {
        "appinvite_service": {
          "other_platform_oauth_client": [
            {
              "client_id": "910402464702-k1pqf9tiqsfjk3ksfgigld75g3f4e3vn.apps.googleusercontent.com",
              "client_type": 3
            },
            {
              "client_id": "910402464702-fhdc527s0ic89dnruqnfgb6rvfvv2vmi.apps.googleusercontent.com",
              "client_type": 2,
              "ios_info": {
                "bundle_id": "com.astaire.weatherapp"
              }
            }
          ]
        }
      }
    }
  ],
  "configuration_version": "1"
}